{
  "batch_size": 20,
  "eval_batch": 64,
  "learning_rate": 0.001,
  "n_cpu": 2,
  "img_size": 64,
  "checkpoint_interval": 1,
  "evaluation_interval": 1,
  "epochs": 20,
  "criterion": "focal",
  "alpha": 0.8,
  "gamma": 3,

  "contextlayer": true,
  "hlayers": [32, 16, 8],
  "classify": true,
  "classes": 2,
  "context": 3,
  "frame_skips": 2,
  "sample_size": 25,
  "sample_first": true,
  "latent_size": 64,
  "nmodes": 1,

  "modalities": ["rgb", "depth", "joint_position"],
  "train_files": "/home/iain/data/isaac_sims/latent_train.txt",
  "valid_files": "/home/iain/data/isaac_sims/latent_valid.txt",
  "latent_chkpt": "../multisensory_learning/checkpoints/msp_epoch_200.pt",

  "checkpoint_path": "checkpoints/latcontfocal3/",
  "checkpoint_name": "latcontfocal_{}.pt"
}
